{"results":[{"vote_count":0,"id":430354,"video":false,"vote_average":0,"title":"Bushwick","popularity":12.029334,"poster_path":"\/9fGjmzxdiKWsrlY3syrm2aXeTq7.jpg","original_language":"en","original_title":"Bushwick","genre_ids":[53,28],"backdrop_path":"\/pWl452XQwLUXVX4QQF1kRUzCt5v.jpg","adult":false,"overview":"In a Brooklyn neighborhood, 20-year-old Lucy and war veteran Stupe must cross a treacherous five blocks to escape an invading military force.","release_date":"2017-08-25"},{"vote_count":17,"id":408266,"video":false,"vote_average":9.5,"title":"Birth of the Dragon","popularity":11.932873,"poster_path":"\/y29CEE9oukwhNT6INWVEOaINHpR.jpg","original_language":"en","original_title":"Birth of the Dragon","genre_ids":[28],"backdrop_path":"\/sny1LWyTfB4NSHXjWvwrKBABacN.jpg","adult":false,"overview":"Set against the backdrop of San Francisco’s Chinatown, this cross-cultural biopic chronicles Bruce Lee’s emergence as a martial-arts superstar after his legendary secret showdown with fellow martial artist Wong Jack Man.","release_date":"2017-08-25"},{"vote_count":118,"id":339692,"video":false,"vote_average":6.9,"title":"Shot Caller","popularity":11.7823,"poster_path":"\/qLmLz2wtyYvmW8Ult3l2ngOnW8v.jpg","original_language":"en","original_title":"Shot Caller","genre_ids":[18,80,53],"backdrop_path":"\/hehboYLXB3m90x9ybiBsupwuifL.jpg","adult":false,"overview":"A newly-released prison gangster is forced by the leaders of his gang to orchestrate a major crime with a brutal rival gang on the streets of Southern California.","release_date":"2017-07-13"},{"vote_count":0,"id":467669,"video":false,"vote_average":0,"title":"The Poetess","popularity":11.682579,"poster_path":"\/xNPsQQ49bQET5sXtIJf6xewwFgh.jpg","original_language":"ar","original_title":"The Poetess","genre_ids":[],"backdrop_path":null,"adult":false,"overview":"","release_date":"2017-08-23"},{"vote_count":0,"id":412572,"video":false,"vote_average":0,"title":"Sivaranjiniyum Innum Sila Pengalum","popularity":11.459097,"poster_path":null,"original_language":"ta","original_title":"Sivaranjiniyum Innum Sila Pengalum","genre_ids":[18],"backdrop_path":null,"adult":false,"overview":"Sivaranjiniyum Innum Sila Pengalum (English: Sivaranjini and a few more women) is an upcoming Indian Tamil anthology film directed by Vasanth. The film contains three female-centric short stories written by writers Jeyamohan, S. Ramakrishnan and Ashoka Mithran. The film features Padmapriya, Parvathy and Pooja Kumar in the lead roles, while Karunakaran plays a supporting role. Featuring music composed by Sudha Raghunathan, the film began production in early 2015.","release_date":"2017-08-24"},{"vote_count":0,"id":469872,"video":false,"vote_average":0,"title":"A Gentlemen","popularity":11.41102,"poster_path":"\/2AVFhkbcNNDpESdZWmkgu7cE4qf.jpg","original_language":"en","original_title":"A Gentlemen","genre_ids":[],"backdrop_path":null,"adult":false,"overview":"Gaurav dreams of settling down with Kavya, the woman of his dreams, but she prefers a man who's more adventurous and willing to take risks. He soon stands to lose everything when a case of mistaken identity rocks his once-happy life.","release_date":"2017-08-25"},{"vote_count":138,"id":293768,"video":false,"vote_average":5.8,"title":"Kidnap","popularity":10.994863,"poster_path":"\/9CabD3j9PrjRY054fL0WJuEcXHZ.jpg","original_language":"en","original_title":"Kidnap","genre_ids":[18,53],"backdrop_path":"\/8hRN2YGnjzFZAVseunzDZjLoXh7.jpg","adult":false,"overview":"Single mother Karla McCoy lives a perfect life with her young son Frankie. One day, upon entering a local park, Karla sees her son suddenly being abducted out of the blue by a kidnapper. To save Frankie from being taken, Karla goes out on a mission to demand people in the city to help rescue her son.","release_date":"2017-08-04"},{"vote_count":25,"id":335777,"video":false,"vote_average":6.3,"title":"The Nut Job 2: Nutty by Nature","popularity":10.954237,"poster_path":"\/9FVJOUCmruekroyfsTsAKDYST80.jpg","original_language":"en","original_title":"The Nut Job 2: Nutty by Nature","genre_ids":[10751,16,12,35],"backdrop_path":"\/9eGDy4gjelTXYu4sIrC0lqxRUYc.jpg","adult":false,"overview":"When the evil mayor of Oakton decides to bulldoze Liberty Park and build a dangerous amusement park in its place, Surly Squirrel and his ragtag group of animal friends need to band together to save their home, defeat the mayor, and take back the park.","release_date":"2017-08-11"},{"vote_count":0,"id":450806,"video":false,"vote_average":0,"title":"All Saints","popularity":10.630729,"poster_path":"\/k6MDUbSs4At1NZOYuEJqEmxmLOs.jpg","original_language":"en","original_title":"All Saints","genre_ids":[18],"backdrop_path":"\/iL5ZS7f1DlexqYKlIOoOEScVpNy.jpg","adult":false,"overview":"ALL SAINTS is based on the inspiring true story of salesman-turned-pastor Michael Spurlock (John Corbett), the tiny church he was ordered to shut down, and a group of refugees from Southeast Asia. Together, they risked everything to plant seeds for a future that might just save them all.","release_date":"2017-08-25"},{"vote_count":3,"id":425507,"video":false,"vote_average":0,"title":"Crown Heights","popularity":10.602064,"poster_path":"\/iyPzzuNfCotbgHoWEXwBGxHBra5.jpg","original_language":"en","original_title":"Crown Heights","genre_ids":[18],"backdrop_path":"\/8kT4NFQfNZ2ig6Nj7FVeACTH9v1.jpg","adult":false,"overview":"When Colin Warner was wrongfully convicted of murder, his best friend Carl King devoted his life to proving his innocence.","release_date":"2017-08-25"},{"vote_count":0,"id":467394,"video":false,"vote_average":0,"title":"Damned Summer","popularity":10.280371,"poster_path":"\/8BlnKU926irjVVLF9Kgfbn9FIvr.jpg","original_language":"pt","original_title":"Verão Danado","genre_ids":[18],"backdrop_path":null,"adult":false,"overview":"Idling afternoons, drugs, heartbreaks, psychedelic moods immersed in music. An adrenaline rush. Lisbon as the backdrop for a drifting youth.","release_date":"2017-08-21"},{"vote_count":1,"id":339103,"video":false,"vote_average":0,"title":"The Life and Death of John Gotti","popularity":10.036958,"poster_path":null,"original_language":"en","original_title":"The Life and Death of John Gotti","genre_ids":[80,18,36],"backdrop_path":null,"adult":false,"overview":"John Gotti rises to the top of the New York underworld to become the boss of the Gambino crime family. His life takes a tumultuous turn as he faces tragedy, multiple trials and a prison sentence.","release_date":"2017-08-25"},{"vote_count":0,"id":455954,"video":false,"vote_average":0,"title":"Sekigahara","popularity":9.933571,"poster_path":"\/zXggmz5iwmUjQFMMEclGH4raw2G.jpg","original_language":"ja","original_title":"関ヶ原","genre_ids":[10752,36],"backdrop_path":null,"adult":false,"overview":"A movie adaptation of a novel based on the Battle of Sekigahara. The famous battle determined the ruler for Japan and marked the beginning of the rise of the Tokugawa shogunate.","release_date":"2017-08-26"},{"vote_count":3,"id":414425,"video":false,"vote_average":0,"title":"Mudbound","popularity":9.872974,"poster_path":"\/MapIVnJ52OZGHaM2LVuT6WvytI.jpg","original_language":"en","original_title":"Mudbound","genre_ids":[18],"backdrop_path":"\/cAy3Dr58zZzS70TfuCmGFQhK4yi.jpg","adult":false,"overview":"In the post–World War II South, two families are pitted against a barbaric social hierarchy and an unrelenting landscape as they simultaneously fight the battle at home and the battle abroad.","release_date":"2017-08-24"},{"vote_count":15,"id":354282,"video":false,"vote_average":0,"title":"Science Fiction Volume One: The Osiris Child","popularity":9.698492,"poster_path":"\/bEa4lssjiYCv226Z0gKKbfPGJAJ.jpg","original_language":"en","original_title":"Science Fiction Volume One: The Osiris Child","genre_ids":[878],"backdrop_path":"\/5HlTix2YQw24NCGZ7D83VJeRkLh.jpg","adult":false,"overview":"Set in the future in a time of interplanetary colonization, an unlikely pair race against an impending global crisis and are confronted by the monsters that live inside us all.","release_date":"2017-08-31"},{"vote_count":0,"id":467387,"video":false,"vote_average":0,"title":"Meteors","popularity":9.464509,"poster_path":"\/8LA6a0gEFzvTUcDwPTrcyqRfwOj.jpg","original_language":"tr","original_title":"Meteorlar","genre_ids":[],"backdrop_path":null,"adult":false,"overview":"They come at night and everybody steps out. They light torches and remember those who have walked these streets before them. In the coming hours, the city wil be on lockdown: an eclipse appears and meteors start to fall.","release_date":"2017-08-21"},{"vote_count":0,"id":467389,"video":false,"vote_average":0,"title":"Scary Mother","popularity":9.367368,"poster_path":"\/3nydfvtNZtoKVseWScvxkhozd5A.jpg","original_language":"ka","original_title":"Sashishi Deda","genre_ids":[18],"backdrop_path":null,"adult":false,"overview":"A 50-year-old housewife, Manana, struggles with her dilemma - she has to choose between her family life and her passion, writing, which she had repressed for years - she decides to follow her passion and plunges herself into writing, sacrificing to it mentally and physically.","release_date":"2017-08-21"},{"vote_count":703,"id":339988,"video":false,"vote_average":5.3,"title":"The Circle","popularity":9.239015,"poster_path":"\/bQVqd5rWrx5GbXhJNuvKy4Viz6j.jpg","original_language":"en","original_title":"The Circle","genre_ids":[18,53,878],"backdrop_path":"\/hENBbG0J4zf4fFB3OVAC50poojR.jpg","adult":false,"overview":"A young tech worker takes a job at a powerful Internet corporation, quickly rises up the company's ranks, and soon finds herself in a perilous situation concerning privacy, surveillance and freedom. She comes to learn that her decisions and actions will determine the future of humanity.","release_date":"2017-04-27"},{"vote_count":0,"id":467396,"video":false,"vote_average":0,"title":"Aliens","popularity":9.205422,"poster_path":"\/5WBNNRA5qOFA1xSTKDZDImhzGhp.jpg","original_language":"es","original_title":"Aliens","genre_ids":[],"backdrop_path":null,"adult":false,"overview":"","release_date":"2017-08-21"},{"vote_count":0,"id":467753,"video":false,"vote_average":0,"title":"Nazidanie","popularity":9.188946,"poster_path":null,"original_language":"ru","original_title":"Nazidanie","genre_ids":[],"backdrop_path":null,"adult":false,"overview":"","release_date":"2017-08-24"}],"page":2,"total_results":341,"dates":{"maximum":"2017-09-15","minimum":"2017-08-21"},"total_pages":18}