{"results":[{"vote_count":352,"id":396422,"video":false,"vote_average":6.2,"title":"xAnnabelle: Creation","popularity":62.719209,"poster_path":"\/tb86j8jVCVsdZnzf8I6cIi65IeM.jpg","original_language":"en","original_title":"Annabelle: Creation","genre_ids":[53,27],"backdrop_path":"\/o8u0NyEigCEaZHBdCYTRfXR8U4i.jpg","adult":false,"overview":"Several years after the tragic death of their little girl, a dollmaker and his wife welcome a nun and several girls from a shuttered orphanage into their home, soon becoming the target of the dollmaker's possessed creation, Annabelle.","release_date":"2017-08-09"},{"vote_count":1351,"id":324852,"video":false,"vote_average":6.2,"title":"Despicable Me 3","popularity":59.890196,"poster_path":"\/5qcUGqWoWhEsoQwNUrtf3y3fcWn.jpg","original_language":"en","original_title":"Despicable Me 3","genre_ids":[878,12,16,35,10751],"backdrop_path":"\/puV2PFq42VQPItaygizgag8jrXa.jpg","adult":false,"overview":"Gru and his wife Lucy must stop former '80s child star Balthazar Bratt from achieving world domination.","release_date":"2017-06-15"},{"vote_count":1406,"id":374720,"video":false,"vote_average":7.4,"title":"Dunkirk","popularity":42.038115,"poster_path":"\/bOXBV303Fgkzn2K4FeKDc0O31q4.jpg","original_language":"en","original_title":"Dunkirk","genre_ids":[28,18,36,53,10752],"backdrop_path":"\/fudEG1VUWuOqleXv6NwCExK0VLy.jpg","adult":false,"overview":"Miraculous evacuation of Allied soldiers from Belgium, Britain, Canada, and France, who were cut off and surrounded by the German army from the beaches and harbor of Dunkirk, France, between May 26 and June 04, 1940, during Battle of France in World War II.","release_date":"2017-07-19"},{"vote_count":286,"id":353491,"video":false,"vote_average":5.7,"title":"The Dark Tower","popularity":31.218664,"poster_path":"\/i9GUSgddIqrroubiLsvvMRYyRy0.jpg","original_language":"en","original_title":"The Dark Tower","genre_ids":[28,37,878,14,27],"backdrop_path":"\/2n7Zn6WxJ76ccOwnuQHuhSFMbqt.jpg","adult":false,"overview":"The last Gunslinger, Roland Deschain, has been locked in an eternal battle with Walter O’Dim, also known as the Man in Black, determined to prevent him from toppling the Dark Tower, which holds the universe together. With the fate of the worlds at stake, good and evil will collide in the ultimate battle as only Roland can defend the Tower from the Man in Black.","release_date":"2017-08-03"},{"vote_count":9,"id":460790,"video":false,"vote_average":6.7,"title":"Starship Troopers: Traitor of Mars","popularity":30.374824,"poster_path":"\/dzqEq8Jbvb5SYGoYPqLyIRrt6Cm.jpg","original_language":"en","original_title":"Starship Troopers: Traitor of Mars","genre_ids":[28,16,878],"backdrop_path":"\/27nKWPZFGcCDWYJkCwrJOzjD26q.jpg","adult":false,"overview":"Federation trooper Johnny Rico is ordered to work with a group of new recruits on a satellite station on Mars, where giant bugs have decided to target their next attack.","release_date":"2017-08-21"},{"vote_count":47,"id":346364,"video":false,"vote_average":5.9,"title":"It","popularity":29.016197,"poster_path":"\/tp9SBVBvouRipujcx0Q793R3ik2.jpg","original_language":"en","original_title":"It","genre_ids":[27],"backdrop_path":"\/g8wnyyR6vlZjfdePD2v1lKGLUix.jpg","adult":false,"overview":"In a small town in Maine, seven children known as The Losers Club come face to face with life problems, bullies and a monster that takes the shape of a clown called Pennywise.","release_date":"2017-08-17"},{"vote_count":66,"id":390043,"video":false,"vote_average":5.6,"title":"The Hitman's Bodyguard","popularity":28.315656,"poster_path":"\/eEQaKq3urzcfzlHMMckj4lXQWJv.jpg","original_language":"en","original_title":"The Hitman's Bodyguard","genre_ids":[28,35],"backdrop_path":"\/grfqyfygapZkz6Oh8PGxzYwnWR8.jpg","adult":false,"overview":"The world's top bodyguard gets a new client, a hit man who must testify at the International Court of Justice. They must put their differences aside and work together to make it to the trial on time.","release_date":"2017-08-16"},{"vote_count":47,"id":406990,"video":false,"vote_average":7.8,"title":"What Happened to Monday","popularity":26.004959,"poster_path":"\/ksOj6sYmy8XGRuFVRlUHEHO5TML.jpg","original_language":"en","original_title":"What Happened to Monday","genre_ids":[878,53],"backdrop_path":"\/wwZ2uXOwPkMrZSeFn9s7WFXEMg6.jpg","adult":false,"overview":"In a world where families are limited to one child due to overpopulation, a set of identical septuplets must avoid being put to a long sleep by the government and dangerous infighting while investigating the disappearance of one of their own.","release_date":"2017-08-18"},{"vote_count":24,"id":399170,"video":false,"vote_average":7.3,"title":"Logan Lucky","popularity":21.974083,"poster_path":"\/hXjPPf6gIMMl3Sy9D8pohwwhNWU.jpg","original_language":"en","original_title":"Logan Lucky","genre_ids":[35,80],"backdrop_path":"\/hxfly3q1xkByXF6quf7q82H4BSm.jpg","adult":false,"overview":"Trying to reverse a family curse, brothers Jimmy and Clyde Logan set out to execute an elaborate robbery during the legendary Coca-Cola 600 race at the Charlotte Motor Speedway.","release_date":"2017-08-17"},{"vote_count":0,"id":470370,"video":false,"vote_average":0,"title":"Thomas & Friends: Journey Beyond Sodor","popularity":20.124513,"poster_path":"\/aQCrw3oeN9zmAu4ynmJwwfLGQUx.jpg","original_language":"en","original_title":"Thomas & Friends: Journey Beyond Sodor","genre_ids":[16],"backdrop_path":"\/HBCV6Sicfi8r39L9GiNvHjqznW.jpg","adult":false,"overview":"Join Thomas and his friends in this exciting adventure to the mainland that shows us friendship is more important than being the favorite engine. Can Thomas and the new experimental engines save James and help bring him back to the Island of Sodor?","release_date":"2017-08-22"},{"vote_count":395,"id":341013,"video":false,"vote_average":5.7,"title":"Atomic Blonde","popularity":18.54321,"poster_path":"\/kV9R5h0Yct1kR8Hf8sJ1nX0Vz4x.jpg","original_language":"en","original_title":"Atomic Blonde","genre_ids":[28,53],"backdrop_path":"\/lj3wkYkJGkfmDfXkKrVarSJpFD4.jpg","adult":false,"overview":"An undercover MI6 agent is sent to Berlin during the Cold War to investigate the murder of a fellow agent and recover a missing list of double agents.","release_date":"2017-07-26"},{"vote_count":550,"id":339964,"video":false,"vote_average":6.8,"title":"Valerian and the City of a Thousand Planets","popularity":18.062749,"poster_path":"\/8L7FE3bXjN98BcmKANzrL9WwKsK.jpg","original_language":"en","original_title":"Valerian and the City of a Thousand Planets","genre_ids":[12,878,28],"backdrop_path":"\/o6OhxtsgMurL4h68Uqei0aSPMNr.jpg","adult":false,"overview":"In the 28th century, Valerian and Laureline are special operatives charged with keeping order throughout the human territories. On assignment from the Minister of Defense, the two undertake a mission to Alpha, an ever-expanding metropolis where species from across the universe have converged over centuries to share knowledge, intelligence, and cultures. At the center of Alpha is a mysterious dark force which threatens the peaceful existence of the City of a Thousand Planets, and Valerian and Laureline must race to identify the menace and safeguard not just Alpha, but the future of the universe.","release_date":"2017-07-20"},{"vote_count":5,"id":426256,"video":false,"vote_average":8,"title":"Patti Cake$","popularity":17.144949,"poster_path":"\/11MVxyp77zUPwc4cmqsUumNQYWK.jpg","original_language":"en","original_title":"Patti Cake$","genre_ids":[18],"backdrop_path":"\/aHC0VmwGIFxRmL6NLRck8jvlr9I.jpg","adult":false,"overview":"Straight out of Jersey comes Patricia Dombrowski, a.k.a. Killa P, a.k.a. Patti Cake$, an aspiring rapper fighting through a world of strip malls and strip clubs on an unlikely quest for glory.","release_date":"2017-08-18"},{"vote_count":5,"id":451945,"video":false,"vote_average":8,"title":"120 Beats Per Minute","popularity":16.415763,"poster_path":"\/q6fohIpyfvUOgAmNPu5bUgMuojG.jpg","original_language":"fr","original_title":"120 battements par minute","genre_ids":[],"backdrop_path":"\/jsaD6llm7kpkS0qfcfLByCmqrub.jpg","adult":false,"overview":"Paris, in the early 1990s: a group of young activists is desperately tied to finding the cure against an unknown lethal disease. They target the pharmaceutical labs that are retaining potential cures, and multiply direct actions, with the hope of saving their lives as well as the ones of future generations.","release_date":"2017-08-23"},{"vote_count":0,"id":470294,"video":false,"vote_average":0,"title":"Ciel Rouge","popularity":16.066306,"poster_path":"\/xVTQlKpIFaPpJwwjSVh9Qmn9nMI.jpg","original_language":"fr","original_title":"Ciel Rouge","genre_ids":[18],"backdrop_path":"\/qWNwPdbjKcTALf38Y8wxz8JILmo.jpg","adult":false,"overview":"","release_date":"2017-08-23"},{"vote_count":4,"id":405815,"video":false,"vote_average":5.5,"title":"The Sex Trip","popularity":15.712393,"poster_path":"\/mHaoxsMxjBX9FpV7GKuAo8l1JYc.jpg","original_language":"en","original_title":"The Sex Trip","genre_ids":[14,35],"backdrop_path":null,"adult":false,"overview":"After a shallow womanizer refuses a mysterious homeless woman's request for a kiss, he wakes up the next morning to discover he's been changed into a woman.","release_date":"2017-08-24"},{"vote_count":10,"id":337170,"video":false,"vote_average":4,"title":"American Made","popularity":14.284659,"poster_path":"\/8dTWj3c74RDhXfSUZpuyVNJrgS.jpg","original_language":"en","original_title":"American Made","genre_ids":[80,53],"backdrop_path":"\/jcKzxRGYiXuS7ctTHLdw9wH8d7V.jpg","adult":false,"overview":"The true story of pilot Barry Seal, who transported contraband for the CIA and the Medellin cartel in the 1980s.","release_date":"2017-08-17"},{"vote_count":176,"id":378236,"video":false,"vote_average":5.4,"title":"The Emoji Movie","popularity":12.961957,"poster_path":"\/f5pF4OYzh4wb1dYL2ARQNdqUsEZ.jpg","original_language":"en","original_title":"The Emoji Movie","genre_ids":[35,10751,16],"backdrop_path":"\/kTrgxhRSj2sun89bDbnGCPBiey6.jpg","adult":false,"overview":"Gene, a multi-expressional emoji, sets out on a journey to become a normal emoji.","release_date":"2017-07-28"},{"vote_count":32,"id":460846,"video":false,"vote_average":6.3,"title":"Security","popularity":12.338947,"poster_path":"\/fG2SZwAAY4mNscLfvSiKyBxaVQy.jpg","original_language":"en","original_title":"Security","genre_ids":[28],"backdrop_path":"\/tTxuPQGhcnxbUamaX4uMkA7onSt.jpg","adult":false,"overview":"An ex-special services veteran, down on his luck and desperate for work, takes a job as a security guard at a run-down mall in a rough area of town. On his first night on the job, he opens the door to a distraught and desperate young girl who has fled the hijacking of a Police motorcade that was transporting her to testify as a witness in a trial. Hot on her heels is the psychopathic hijacker and his team of henchmen, who will stop at nothing to extract and eliminate the witness.","release_date":"2017-03-04"},{"vote_count":1064,"id":339403,"video":false,"vote_average":7,"title":"Baby Driver","popularity":12.178491,"poster_path":"\/dN9LbVNNZFITwfaRjl4tmwGWkRg.jpg","original_language":"en","original_title":"Baby Driver","genre_ids":[28,80],"backdrop_path":"\/xWPXlLKSLGUNYzPqxDyhfij7bBi.jpg","adult":false,"overview":"After being coerced into working for a crime boss, a young getaway driver finds himself taking part in a heist doomed to fail.","release_date":"2017-06-28"}],"page":1,"total_results":349,"dates":{"maximum":"2017-09-18","minimum":"2017-08-21"},"total_pages":18}